Retrieve CDC growth chart metadataset — get_cdc_data • admiralpeds
…
M
Median

S
Coefficient of variation

This metadata is sourced from the
CDC website.

    Examples

get_cdc_data(type = "bmi")
#> # A tibble: 438 × 5
#>      SEX   AGE     L     M      S
#>    <dbl> <dbl> <dbl> <dbl>  <dbl>
#>  1     1  24   -2.01  16.6 0.0806
#>  2     1  24.5 -1.98  16.5 0.0801
#>  3     1  25.5 -1.92  16.5 0.0792
#>  4     1  26.5 -1.87  16.4 0.0784
#>  5     1  27.5 -1.81  16.4 0.0776
#>  6     1  28.5 -1.75  16.3 0.0768
#>  7     1  29.5 -1.69  16.3 0.0761
#>  8     1  30.5 -1.64  16.2 0.0755
#>  9     1  31.5 -1.59  16.2 0.0749
#> 10     1  32.5 -1.55  16.2 0.0743
#> # ℹ 428 more rows
…
