…
# Interpolate the AGE by SEX
derive_interp_records(
  dataset = cdc_htage,
  by_vars = exprs(SEX),
  parameter = "HEIGHT"
)
#> # A tibble: 13,152 × 6
#>    SEX     AGE     L     M      S AGEU 
#>    <chr> <dbl> <dbl> <dbl>  <dbl> <chr>
#>  1 F       730  1.07  85.0 0.0408 DAYS 
#>  2 F       731  1.07  85.0 0.0408 DAYS 
#>  3 F       732  1.07  85.0 0.0408 DAYS 
#>  4 F       733  1.07  85.1 0.0408 DAYS 
#>  5 F       734  1.07  85.1 0.0408 DAYS 
#>  6 F       735  1.07  85.1 0.0408 DAYS 
#>  7 F       736  1.06  85.1 0.0408 DAYS 
#>  8 F       737  1.06  85.2 0.0408 DAYS 
#>  9 F       738  1.06  85.2 0.0408 DAYS 
#> 10 F       739  1.06  85.2 0.0408 DAYS 
#> # ℹ 13,142 more rows
```
