…
  age = AGECUR,
  age_unit = AGECURU,
  meta_criteria = criteria,
  parameter = VSTESTCD == "HEIGHT",
  analysis_var = VSSTRESN,
  set_values_to_sds = exprs(
    PARAMCD = "HGTSDS",
    PARAM = "Height-for-age z-score"
  ),
  set_values_to_pctl = exprs(
    PARAMCD = "HGTPCTL",
    PARAM = "Height-for-age percentile"
  )
)
#> # A tibble: 232 × 39
#>    USUBJID     BRTHDTC  SEX   STUDYID DOMAIN VSSEQ VSTESTCD VSTEST VSPOS VSORRES
#>    <chr>       <chr>    <chr> <chr>   <chr>  <int> <chr>    <chr>  <chr> <chr>  
#>  1 01-701-1015 2013-01… F     CDISCP… VS         1 BMI      BMI    NA    16.577…
#>  2 01-701-1015 2013-01… F     CDISCP… VS         5 BMI      BMI    NA    16.615…
#>  3 01-701-1015 2013-01… F     CDISCP… VS         9 BMI      BMI    NA    16.697…
#>  4 01-701-1015 2013-01… F     CDISCP… VS        13 BMI      BMI    NA    16.816…
#>  5 01-701-1015 2013-01… F     CDISCP… VS        17 BMI      BMI    NA    16.824…
#>  6 01-701-1015 2013-01… F     CDISCP… VS        21 BMI      BMI    NA    16.915…
#>  7 01-701-1015 2013-01… F     CDISCP… VS        25 BMI      BMI    NA    17.051…
#>  8 01-701-1015 2013-01… F     CDISCP… VS        29 BMI      BMI    NA    17.162…
#>  9 01-701-1015 2013-01… F     CDISCP… VS        33 BMI      BMI    NA    17.248…
#> 10 01-701-1015 2013-01… F     CDISCP… VS        37 BMI      BMI    NA    17.433…
#> # ℹ 222 more rows
#> # ℹ 29 more variables: VSORRESU <chr>, VSSTRESC <chr>, VSSTRESN <dbl>,
#> #   VSSTRESU <chr>, VSSTAT <chr>, VSLOC <chr>, VSBLFL <chr>, VISITNUM <dbl>,
#> #   VISIT <chr>, VISITDY <int>, VSDTC <chr>, VSDY <int>, VSTPT <chr>,
#> #   VSTPTNUM <dbl>, VSELTM <chr>, VSTPTREF <chr>, VSEVAL <chr>, EPOCH <chr>,
#> #   VSDT <date>, BRTHDT <date>, AGECUR_D <dbl>, CURU_D <chr>, AGECUR_M <dbl>,
#> #   CURU_M <chr>, AGECUR <dbl>, AGECURU <chr>, AVAL <dbl>, PARAMCD <chr>, …
```
